이제 131
우리 70
그거 56
지금 51
사실 51
직원 50
가지 39
사람 38
번호 35
저희 34
개인정보 28
문제 28
말씀 26
그게 26
때문 24
다른 22
생각 21
회사 21
그냥 21
확인 21
대한 20
얘기 20
부분 20
정도 19
일단 19
피해 19
만약 19
보험 19
경우 18
그것 18
주민 17
상황 16
보고 16
하나 16
기간 16
여기 16
개인 15
거기 15
대해 15
다시 15
가입 15
신고 15
자체 14
데이터 14
법적 13
본인 13
정보 13
관리 13
실제 12
왜냐면 12
기본 11
이야기 11
수도 11
부적 11
내용 11
주민등록 10
사용 10
입장 10
이번 10
이름 10
따라서 10
티비 10
처리 9
시간 9
이용 9
혹시 9
조치 8
수가 8
개발 8
제공 8
조사 8
기사 8
이건 8
방법 7
보시 7
다음 7
포함 7
보호 7
발생 7
에이 7
감사 7
아마 7
원장 7
법인 7
구체 7
고민 6
일반 6
모든 6
기관 6
자료 6
실질 6
바로 6
업무 6
내부 6
그때 6
자기 6
인사 6
계획 6
사업자 6
해당 5
